{"page":1,"results":[{"id":1001,"title":"Ceiling Film","release_date":"2026-01-01"}],"total_pages":30,"total_results":600}
