{"page":2,"results":[{"id":703,"title":"Page2 Film C","release_date":"2026-01-07"},{"id":704,"title":"Page2 Film D","release_date":"2026-01-08"}],"total_pages":2,"total_results":4}
