{"page":1,"results":[{"id":701,"title":"Page1 Film A","release_date":"2026-01-05"},{"id":702,"title":"Page1 Film B","release_date":"2026-01-06"}],"total_pages":2,"total_results":4}
